{
  "name": "ecommerce-backend",
  "version": "1.0.0",
  "description": "This is the MERN stack ecommerce application.",
  "main": "add.js",
  "scripts": {
    "test": "echo \"Error: no test specified\" && exit 1",
    "start": "nodemon app.js"
  },
  "author": "Dharmik Soni",
  "license": "MIT",
  "dependencies": {
    "dotenv": "^8.1.0",
    "express": "^4.17.1"
  }
}
